%YAML 1.1
%TAG !u! tag:unity3d.com,2011:
--- !u!1045 &1
EditorBuildSettings:
  m_ObjectHideFlags: 0
  serializedVersion: 2
  m_Scenes:
  - enabled: 1
    path: Assets/Overworld.unity
  - enabled: 1
    path: Assets/Bane2.unity
  - enabled: 1
    path: Assets/Bane3.unity
  - enabled: 1
    path: Assets/TestBane1.unity
  - enabled: 1
    path: Assets/StillScene.unity
  - enabled: 1
    path: Assets/Bane4.unity
